{
    "0": {
      "samples": [
        {
          "strokes": [
            [
              {
                "x": 100,
                "y": 0
              },
              {
                "x": 0,
                "y": 150
              },
              {
                "x": 100,
                "y": 300
              },
              {
                "x": 200,
                "y": 100
              },
              {
                "x": 100,
                "y": 0
              }
            ]
          ]
        }
      ]
    },
    "1": {
      "samples": [
        {
          "strokes": [
            [
              {
                "x": 0,
                "y": 0
              },
              {
                "x": 0,
                "y": 200
              }
            ]
          ]
        }
      ]
    },
    "2": {
      "samples": [
        {
          "strokes": [
            [
              {
                "x": 0,
                "y": 0
              },
              {
                "x": 150,
                "y": 0
              },
              {
                "x": 0,
                "y": 250
              },
              {
                "x": 200,
                "y": 250
              }
            ]
          ]
        },
        {
          "strokes": [
            [
              {
                "x": 210,
                "y": 61
              },
              {
                "x": 246,
                "y": 61
              },
              {
                "x": 291,
                "y": 97
              },
              {
                "x": 311,
                "y": 135
              },
              {
                "x": 311,
                "y": 180
              },
              {
                "x": 270,
                "y": 219
              },
              {
                "x": 183,
                "y": 219
              },
              {
                "x": 189,
                "y": 169
              },
              {
                "x": 245,
                "y": 166
              },
              {
                "x": 348,
                "y": 252
              }
            ]
          ]
        }
      ]
    },
    "3": {
      "samples": [
        {
          "strokes": [
            [
              {
                "x": 20,
                "y": 50
              },
              {
                "x": 100,
                "y": 1
              },
              {
                "x": 153,
                "y": 0
              },
              {
                "x": 181,
                "y": 15
              },
              {
                "x": 204,
                "y": 47
              },
              {
                "x": 204,
                "y": 84
              },
              {
                "x": 124,
                "y": 170
              },
              {
                "x": 191,
                "y": 158
              },
              {
                "x": 229,
                "y": 192
              },
              {
                "x": 234,
                "y": 249
              },
              {
                "x": 190,
                "y": 300
              },
              {
                "x": 114,
                "y": 317
              },
              {
                "x": 38,
                "y": 307
              },
              {
                "x": 0,
                "y": 251
              }
            ]
          ]
        }
      ]
    },
    "4": {
      "samples": [
        {
          "strokes": [
            [
              {
                "x": 300,
                "y": 0
              },
              {
                "x": 200,
                "y": 200
              },
              {
                "x": 400,
                "y": 200
              }
            ],
            [
              {
                "x": 300,
                "y": 100
              },
              {
                "x": 300,
                "y": 300
              }
            ]
          ]
        }
      ]
    },
    "6": {
      "samples": [
        {
          "strokes": [
            [
              {
                "x": 112,
                "y": 0
              },
              {
                "x": 39,
                "y": 46
              },
              {
                "x": 5,
                "y": 103
              },
              {
                "x": 0,
                "y": 237
              },
              {
                "x": 80,
                "y": 278
              },
              {
                "x": 153,
                "y": 260
              },
              {
                "x": 160,
                "y": 216
              },
              {
                "x": 137,
                "y": 171
              },
              {
                "x": 73,
                "y": 141
              },
              {
                "x": 3,
                "y": 150
              }
            ]
          ]
        }
      ]
    },
    "7": {
      "samples": [
        {
          "strokes": [
            [
              {
                "x": 0,
                "y": 0
              },
              {
                "x": 200,
                "y": 0
              },
              {
                "x": 100,
                "y": 300
              }
            ]
          ]
        }
      ]
    },
    "8": {
      "samples": [
        {
          "strokes": [
            [
              {
                "x": 77,
                "y": 82
              },
              {
                "x": 102,
                "y": 55
              },
              {
                "x": 101,
                "y": 23
              },
              {
                "x": 60,
                "y": 2
              },
              {
                "x": 16,
                "y": 1
              },
              {
                "x": 0,
                "y": 32
              },
              {
                "x": 0,
                "y": 97
              },
              {
                "x": 101,
                "y": 151
              },
              {
                "x": 140,
                "y": 197
              },
              {
                "x": 130,
                "y": 240
              },
              {
                "x": 48,
                "y": 246
              },
              {
                "x": 38,
                "y": 183
              },
              {
                "x": 104,
                "y": 89
              }
            ]
          ]
        }
      ]
    },
    "9": {
      "samples": [
        {
          "strokes": [
            [
              {
                "x": 138,
                "y": 9
              },
              {
                "x": 31,
                "y": 5
              },
              {
                "x": 4,
                "y": 38
              },
              {
                "x": 0,
                "y": 90
              },
              {
                "x": 24,
                "y": 106
              },
              {
                "x": 75,
                "y": 107
              },
              {
                "x": 119,
                "y": 73
              },
              {
                "x": 132,
                "y": 23
              },
              {
                "x": 143,
                "y": 293
              }
            ]
          ]
        }
      ]
    },
    ".": {
      "samples": [
        {
          "strokes": [
            [
              {
                "x": 0,
                "y": 0
              },
              {
                "x": 2,
                "y": 4
              }
            ]
          ]
        }
      ]
    },
    "-": {
      "samples": [
        {
          "strokes": [
            [
              {
                "x": 0,
                "y": 0
              },
              {
                "x": 200,
                "y": 0
              }
            ]
          ]
        }
      ]
    },
    "+": {
      "samples": [
        {
          "strokes": [
            [
              {
                "x": 0,
                "y": 0
              },
              {
                "x": 200,
                "y": 0
              }
            ],
            [
              {
                "x": 0,
                "y": 0
              },
              {
                "x": 0,
                "y": 200
              }
            ]
          ]
        },
        {
          "strokes": [
            [
              {
                "x": 0,
                "y": 0
              },
              {
                "x": 0,
                "y": 200
              }
            ],
            [
              {
                "x": 0,
                "y": 0
              },
              {
                "x": 200,
                "y": 0
              }
            ]
          ]
        }
      ]
    },
    "(": {
      "samples": [
        {
          "strokes": [
            [
              {
                "x": 150,
                "y": 0
              },
              {
                "x": 0,
                "y": 200
              },
              {
                "x": 150,
                "y": 400
              }
            ]
          ]
        }
      ]
    },
    ")": {
      "samples": [
        {
          "strokes": [
            [
              {
                "x": 0,
                "y": 0
              },
              {
                "x": 100,
                "y": 200
              },
              {
                "x": 0,
                "y": 400
              }
            ]
          ]
        }
      ]
    },
    "v": {
      "samples": [
        {
          "strokes": [
            [
              {
                "x": 0,
                "y": 0
              },
              {
                "x": 100,
                "y": 200
              },
              {
                "x": 200,
                "y": 0
              }
            ]
          ]
        }
      ]
    },
    "റ": {
      "samples": [
        {
          "strokes": [
            [
              {
                "x": 49,
                "y": 243
              },
              {
                "x": 0,
                "y": 88
              },
              {
                "x": 116,
                "y": 0
              },
              {
                "x": 277,
                "y": 84
              },
              {
                "x": 222,
                "y": 261
              }
            ]
          ]
        }
      ]
    },
    "ത": {
      "samples": [
        {
          "strokes": [
            [
              {
                "x": 74,
                "y": 267
              },
              {
                "x": 0,
                "y": 44
              },
              {
                "x": 150,
                "y": 9
              },
              {
                "x": 274,
                "y": 75
              },
              {
                "x": 297,
                "y": 218
              },
              {
                "x": 227,
                "y": 294
              },
              {
                "x": 114,
                "y": 119
              },
              {
                "x": 315,
                "y": 0
              },
              {
                "x": 404,
                "y": 97
              },
              {
                "x": 423,
                "y": 298
              }
            ]
          ]
        }
      ]
    },
    "ി": {
      "samples": [
        {
          "strokes": [
            [
              {
                "x": 0,
                "y": 56
              },
              {
                "x": 35,
                "y": 13
              },
              {
                "x": 69,
                "y": 0
              },
              {
                "x": 101,
                "y": 5
              },
              {
                "x": 126,
                "y": 32
              },
              {
                "x": 134,
                "y": 284
              }
            ]
          ]
        }
      ]
    },
    "ീ": {
      "samples": [
        {
          "strokes": [
            [
              {
                "x": 32,
                "y": 9
              },
              {
                "x": 39,
                "y": 51
              },
              {
                "x": 11,
                "y": 58
              },
              {
                "x": 0,
                "y": 41
              },
              {
                "x": 9,
                "y": 9
              },
              {
                "x": 88,
                "y": 0
              },
              {
                "x": 96,
                "y": 15
              },
              {
                "x": 107,
                "y": 239
              }
            ]
          ]
        }
      ]
    },
    "ല": {
      "samples": [
        {
          "strokes": [
            [
              {
                "x": 0,
                "y": 103
              },
              {
                "x": 112,
                "y": 110
              },
              {
                "x": 123,
                "y": 69
              },
              {
                "x": 79,
                "y": 31
              },
              {
                "x": 8,
                "y": 29
              },
              {
                "x": 4,
                "y": 232
              },
              {
                "x": 121,
                "y": 215
              },
              {
                "x": 290,
                "y": 218
              },
              {
                "x": 277,
                "y": 0
              }
            ]
          ]
        }
      ]
    },
    "ര": {
      "samples": [
        {
          "strokes": [
            [
              {
                "x": 39,
                "y": 283
              },
              {
                "x": 6,
                "y": 225
              },
              {
                "x": 0,
                "y": 171
              },
              {
                "x": 0,
                "y": 104
              },
              {
                "x": 32,
                "y": 55
              },
              {
                "x": 87,
                "y": 11
              },
              {
                "x": 130,
                "y": 0
              },
              {
                "x": 183,
                "y": 1
              },
              {
                "x": 240,
                "y": 50
              },
              {
                "x": 266,
                "y": 90
              },
              {
                "x": 270,
                "y": 167
              },
              {
                "x": 229,
                "y": 232
              },
              {
                "x": 196,
                "y": 248
              },
              {
                "x": 145,
                "y": 234
              },
              {
                "x": 129,
                "y": 159
              },
              {
                "x": 190,
                "y": 73
              },
              {
                "x": 253,
                "y": 40
              }
            ]
          ]
        }
      ]
    },
    "ന": {
      "samples": [
        {
          "strokes": [
            [
              {
                "x": 11,
                "y": 280
              },
              {
                "x": 0,
                "y": 112
              },
              {
                "x": 19,
                "y": 64
              },
              {
                "x": 75,
                "y": 51
              },
              {
                "x": 126,
                "y": 88
              },
              {
                "x": 161,
                "y": 147
              },
              {
                "x": 188,
                "y": 256
              },
              {
                "x": 190,
                "y": 105
              },
              {
                "x": 209,
                "y": 72
              },
              {
                "x": 276,
                "y": 22
              },
              {
                "x": 365,
                "y": 0
              },
              {
                "x": 394,
                "y": 86
              },
              {
                "x": 394,
                "y": 242
              },
              {
                "x": 379,
                "y": 301
              }
            ]
          ]
        }
      ]
    },
    "യ": {
      "samples": [
        {
          "strokes": [
            [
              {
                "x": 71,
                "y": 37
              },
              {
                "x": 116,
                "y": 9
              },
              {
                "x": 170,
                "y": 5
              },
              {
                "x": 201,
                "y": 32
              },
              {
                "x": 204,
                "y": 84
              },
              {
                "x": 131,
                "y": 160
              },
              {
                "x": 43,
                "y": 176
              },
              {
                "x": 9,
                "y": 140
              },
              {
                "x": 0,
                "y": 102
              },
              {
                "x": 0,
                "y": 58
              },
              {
                "x": 30,
                "y": 21
              },
              {
                "x": 131,
                "y": 124
              },
              {
                "x": 214,
                "y": 152
              },
              {
                "x": 250,
                "y": 104
              },
              {
                "x": 249,
                "y": 0
              }
            ]
          ]
        }
      ]
    },
    "ക": {
      "samples": [
        {
          "strokes": [
            [
              {
                "x": 107,
                "y": 72
              },
              {
                "x": 139,
                "y": 12
              },
              {
                "x": 190,
                "y": 4
              },
              {
                "x": 206,
                "y": 43
              },
              {
                "x": 208,
                "y": 175
              },
              {
                "x": 168,
                "y": 240
              },
              {
                "x": 133,
                "y": 250
              },
              {
                "x": 112,
                "y": 148
              },
              {
                "x": 89,
                "y": 238
              },
              {
                "x": 57,
                "y": 262
              },
              {
                "x": 15,
                "y": 267
              },
              {
                "x": 0,
                "y": 236
              },
              {
                "x": 13,
                "y": 171
              },
              {
                "x": 174,
                "y": 102
              },
              {
                "x": 250,
                "y": 102
              },
              {
                "x": 277,
                "y": 123
              },
              {
                "x": 281,
                "y": 198
              },
              {
                "x": 266,
                "y": 247
              }
            ]
          ]
        }
      ]
    },
    "സ": {
      "samples": [
        {
          "strokes": [
            [
              {
                "x": 0,
                "y": 184
              },
              {
                "x": 11,
                "y": 76
              },
              {
                "x": 47,
                "y": 75
              },
              {
                "x": 95,
                "y": 185
              },
              {
                "x": 113,
                "y": 110
              },
              {
                "x": 162,
                "y": 58
              },
              {
                "x": 203,
                "y": 132
              },
              {
                "x": 253,
                "y": 187
              },
              {
                "x": 274,
                "y": 189
              },
              {
                "x": 290,
                "y": 166
              },
              {
                "x": 283,
                "y": 0
              }
            ]
          ]
        }
      ]
    },
    "ശ": {
      "samples": [
        {
          "strokes": [
            [
              {
                "x": 0,
                "y": 33
              },
              {
                "x": 0,
                "y": 142
              },
              {
                "x": 41,
                "y": 165
              },
              {
                "x": 86,
                "y": 119
              },
              {
                "x": 135,
                "y": 16
              },
              {
                "x": 161,
                "y": 0
              },
              {
                "x": 179,
                "y": 0
              },
              {
                "x": 234,
                "y": 63
              },
              {
                "x": 232,
                "y": 135
              },
              {
                "x": 200,
                "y": 152
              },
              {
                "x": 170,
                "y": 148
              },
              {
                "x": 166,
                "y": 55
              },
              {
                "x": 200,
                "y": 23
              }
            ]
          ]
        }
      ]
    },
    "്": {
      "samples": [
        {
          "strokes": [
            [
              {
                "x": 0,
                "y": 8
              },
              {
                "x": 12,
                "y": 41
              },
              {
                "x": 52,
                "y": 46
              },
              {
                "x": 65,
                "y": 0
              }
            ]
          ]
        }
      ]
    },
    "ാ": {
      "samples": [
        {
          "strokes": [
            [
              {
                "x": 0,
                "y": 1
              },
              {
                "x": 29,
                "y": 3
              },
              {
                "x": 53,
                "y": 45
              },
              {
                "x": 53,
                "y": 92
              },
              {
                "x": 12,
                "y": 116
              }
            ]
          ]
        }
      ]
    },
    "മ": {
      "samples": [
        {
          "strokes": [
            [
              {
                "x": 0,
                "y": 111
              },
              {
                "x": 0,
                "y": 42
              },
              {
                "x": 25,
                "y": 0
              },
              {
                "x": 170,
                "y": 12
              },
              {
                "x": 147,
                "y": 74
              },
              {
                "x": 52,
                "y": 155
              },
              {
                "x": 7,
                "y": 216
              },
              {
                "x": 189,
                "y": 210
              },
              {
                "x": 151,
                "y": 65
              }
            ]
          ]
        }
      ]
    },
    "ഉ": {
      "samples": [
        {
          "strokes": [
            [
              {
                "x": 39,
                "y": 19
              },
              {
                "x": 78,
                "y": 29
              },
              {
                "x": 90,
                "y": 91
              },
              {
                "x": 65,
                "y": 107
              },
              {
                "x": 18,
                "y": 106
              },
              {
                "x": 8,
                "y": 36
              },
              {
                "x": 95,
                "y": 0
              },
              {
                "x": 143,
                "y": 21
              },
              {
                "x": 159,
                "y": 88
              },
              {
                "x": 120,
                "y": 148
              },
              {
                "x": 24,
                "y": 175
              },
              {
                "x": 2,
                "y": 227
              },
              {
                "x": 62,
                "y": 248
              },
              {
                "x": 208,
                "y": 242
              }
            ]
          ]
        }
      ]
    },
    "എ": {
      "samples": [
        {
          "strokes": [
            [
              {
                "x": 11,
                "y": 204
              },
              {
                "x": 2,
                "y": 139
              },
              {
                "x": 44,
                "y": 114
              },
              {
                "x": 75,
                "y": 139
              },
              {
                "x": 64,
                "y": 205
              },
              {
                "x": 296,
                "y": 192
              },
              {
                "x": 284,
                "y": 73
              },
              {
                "x": 296,
                "y": 185
              },
              {
                "x": 265,
                "y": 261
              },
              {
                "x": 237,
                "y": 275
              },
              {
                "x": 185,
                "y": 264
              },
              {
                "x": 171,
                "y": 225
              },
              {
                "x": 168,
                "y": 72
              },
              {
                "x": 211,
                "y": 15
              },
              {
                "x": 277,
                "y": 0
              },
              {
                "x": 337,
                "y": 66
              },
              {
                "x": 358,
                "y": 247
              }
            ]
          ]
        }
      ]
    },
    "െ": {
      "samples": [
        {
          "strokes": [
            [
              {
                "x": 36,
                "y": 39
              },
              {
                "x": 107,
                "y": 102
              },
              {
                "x": 116,
                "y": 179
              },
              {
                "x": 77,
                "y": 205
              },
              {
                "x": 11,
                "y": 201
              },
              {
                "x": 1,
                "y": 114
              },
              {
                "x": 33,
                "y": 43
              },
              {
                "x": 118,
                "y": 0
              },
              {
                "x": 207,
                "y": 79
              },
              {
                "x": 224,
                "y": 126
              },
              {
                "x": 222,
                "y": 206
              }
            ]
          ]
        }
      ]
    },
    "വ": {
      "samples": [
        {
          "strokes": [
            [
              {
                "x": 2,
                "y": 202
              },
              {
                "x": 7,
                "y": 52
              },
              {
                "x": 65,
                "y": 16
              },
              {
                "x": 141,
                "y": 76
              },
              {
                "x": 146,
                "y": 148
              },
              {
                "x": 110,
                "y": 206
              },
              {
                "x": 267,
                "y": 206
              },
              {
                "x": 251,
                "y": 0
              }
            ]
          ]
        }
      ]
    },
    "പ": {
      "samples": [
        {
          "strokes": [
            [
              {
                "x": 11,
                "y": 329
              },
              {
                "x": 0,
                "y": 233
              },
              {
                "x": 47,
                "y": 182
              },
              {
                "x": 96,
                "y": 202
              },
              {
                "x": 95,
                "y": 315
              },
              {
                "x": 263,
                "y": 305
              },
              {
                "x": 392,
                "y": 322
              },
              {
                "x": 405,
                "y": 0
              },
              {
                "x": 392,
                "y": 3
              }
            ]
          ]
        }
      ]
    },
    "ഷ": {
      "samples": [
        {
          "strokes": [
            [
              {
                "x": 14,
                "y": 280
              },
              {
                "x": 0,
                "y": 261
              },
              {
                "x": 2,
                "y": 214
              },
              {
                "x": 60,
                "y": 183
              },
              {
                "x": 94,
                "y": 194
              },
              {
                "x": 93,
                "y": 266
              },
              {
                "x": 278,
                "y": 285
              },
              {
                "x": 355,
                "y": 251
              },
              {
                "x": 355,
                "y": 0
              },
              {
                "x": 250,
                "y": 100
              },
              {
                "x": 208,
                "y": 115
              },
              {
                "x": 156,
                "y": 94
              },
              {
                "x": 143,
                "y": 34
              },
              {
                "x": 174,
                "y": 13
              },
              {
                "x": 192,
                "y": 13
              },
              {
                "x": 199,
                "y": 31
              },
              {
                "x": 206,
                "y": 149
              },
              {
                "x": 224,
                "y": 195
              },
              {
                "x": 217,
                "y": 286
              }
            ]
          ]
        }
      ]
    },
    "ഇ": {
      "samples": [
        {
          "strokes": [
            [
              {
                "x": 33,
                "y": 39
              },
              {
                "x": 53,
                "y": 59
              },
              {
                "x": 48,
                "y": 88
              },
              {
                "x": 8,
                "y": 76
              },
              {
                "x": 2,
                "y": 22
              },
              {
                "x": 37,
                "y": 1
              },
              {
                "x": 93,
                "y": 3
              },
              {
                "x": 129,
                "y": 33
              },
              {
                "x": 132,
                "y": 95
              },
              {
                "x": 138,
                "y": 34
              },
              {
                "x": 164,
                "y": 13
              },
              {
                "x": 211,
                "y": 7
              },
              {
                "x": 247,
                "y": 52
              },
              {
                "x": 248,
                "y": 102
              },
              {
                "x": 211,
                "y": 130
              },
              {
                "x": 43,
                "y": 158
              },
              {
                "x": 15,
                "y": 176
              },
              {
                "x": 13,
                "y": 201
              },
              {
                "x": 85,
                "y": 215
              },
              {
                "x": 256,
                "y": 207
              }
            ]
          ]
        }
      ]
    },
    "േ": {
      "samples": [
        {
          "strokes": [
            [
              {
                "x": 4,
                "y": 67
              },
              {
                "x": 18,
                "y": 89
              },
              {
                "x": 73,
                "y": 93
              },
              {
                "x": 100,
                "y": 61
              },
              {
                "x": 106,
                "y": 22
              },
              {
                "x": 50,
                "y": 0
              },
              {
                "x": 11,
                "y": 42
              },
              {
                "x": 0,
                "y": 222
              },
              {
                "x": 63,
                "y": 272
              },
              {
                "x": 107,
                "y": 272
              },
              {
                "x": 129,
                "y": 250
              },
              {
                "x": 127,
                "y": 212
              },
              {
                "x": 100,
                "y": 200
              },
              {
                "x": 43,
                "y": 206
              },
              {
                "x": 16,
                "y": 234
              }
            ]
          ]
        }
      ]
    },
    "ഴ": {
      "samples": [
        {
          "strokes": [
            [
              {
                "x": 2,
                "y": 11
              },
              {
                "x": 2,
                "y": 79
              },
              {
                "x": 63,
                "y": 135
              },
              {
                "x": 143,
                "y": 137
              },
              {
                "x": 175,
                "y": 121
              },
              {
                "x": 210,
                "y": 81
              },
              {
                "x": 210,
                "y": 45
              },
              {
                "x": 173,
                "y": 3
              },
              {
                "x": 106,
                "y": 9
              },
              {
                "x": 100,
                "y": 61
              },
              {
                "x": 143,
                "y": 129
              },
              {
                "x": 154,
                "y": 217
              },
              {
                "x": 111,
                "y": 245
              },
              {
                "x": 42,
                "y": 218
              }
            ]
          ]
        }
      ]
    },
    "അ": {
      "samples": [
        {
          "strokes": [
            [
              {
                "x": 36,
                "y": 228
              },
              {
                "x": 15,
                "y": 193
              },
              {
                "x": 0,
                "y": 95
              },
              {
                "x": 52,
                "y": 22
              },
              {
                "x": 139,
                "y": 15
              },
              {
                "x": 170,
                "y": 30
              },
              {
                "x": 177,
                "y": 73
              },
              {
                "x": 134,
                "y": 126
              },
              {
                "x": 184,
                "y": 147
              },
              {
                "x": 210,
                "y": 197
              },
              {
                "x": 193,
                "y": 224
              },
              {
                "x": 160,
                "y": 228
              },
              {
                "x": 120,
                "y": 208
              },
              {
                "x": 86,
                "y": 157
              },
              {
                "x": 84,
                "y": 115
              },
              {
                "x": 116,
                "y": 72
              },
              {
                "x": 250,
                "y": 29
              },
              {
                "x": 318,
                "y": 227
              },
              {
                "x": 294,
                "y": 133
              },
              {
                "x": 326,
                "y": 52
              },
              {
                "x": 390,
                "y": 3
              },
              {
                "x": 461,
                "y": 8
              },
              {
                "x": 516,
                "y": 59
              },
              {
                "x": 540,
                "y": 138
              },
              {
                "x": 524,
                "y": 185
              },
              {
                "x": 479,
                "y": 217
              },
              {
                "x": 425,
                "y": 193
              },
              {
                "x": 411,
                "y": 131
              },
              {
                "x": 437,
                "y": 68
              },
              {
                "x": 489,
                "y": 32
              }
            ]
          ]
        }
      ]
    },
    "ആ": {
      "samples": [
        {
          "strokes": [
            [
              {
                "x": 52,
                "y": 316
              },
              {
                "x": 25,
                "y": 257
              },
              {
                "x": 0,
                "y": 125
              },
              {
                "x": 11,
                "y": 84
              },
              {
                "x": 41,
                "y": 56
              },
              {
                "x": 123,
                "y": 27
              },
              {
                "x": 209,
                "y": 38
              },
              {
                "x": 224,
                "y": 132
              },
              {
                "x": 176,
                "y": 172
              },
              {
                "x": 240,
                "y": 175
              },
              {
                "x": 265,
                "y": 235
              },
              {
                "x": 211,
                "y": 283
              },
              {
                "x": 143,
                "y": 271
              },
              {
                "x": 103,
                "y": 229
              },
              {
                "x": 102,
                "y": 163
              },
              {
                "x": 136,
                "y": 86
              },
              {
                "x": 200,
                "y": 35
              },
              {
                "x": 252,
                "y": 36
              },
              {
                "x": 321,
                "y": 195
              },
              {
                "x": 329,
                "y": 250
              },
              {
                "x": 304,
                "y": 76
              },
              {
                "x": 389,
                "y": 6
              },
              {
                "x": 453,
                "y": 2
              },
              {
                "x": 488,
                "y": 21
              },
              {
                "x": 512,
                "y": 70
              },
              {
                "x": 533,
                "y": 204
              },
              {
                "x": 515,
                "y": 225
              },
              {
                "x": 462,
                "y": 242
              },
              {
                "x": 414,
                "y": 198
              },
              {
                "x": 411,
                "y": 150
              },
              {
                "x": 435,
                "y": 113
              },
              {
                "x": 531,
                "y": 88
              },
              {
                "x": 594,
                "y": 136
              },
              {
                "x": 616,
                "y": 234
              },
              {
                "x": 566,
                "y": 343
              },
              {
                "x": 428,
                "y": 399
              }
            ]
          ]
        }
      ]
    },
    "ൗ": {
      "samples": [
        {
          "strokes": [
            [
              {
                "x": 28,
                "y": 109
              },
              {
                "x": 0,
                "y": 36
              },
              {
                "x": 25,
                "y": 1
              },
              {
                "x": 117,
                "y": 31
              },
              {
                "x": 151,
                "y": 100
              },
              {
                "x": 172,
                "y": 45
              },
              {
                "x": 206,
                "y": 23
              },
              {
                "x": 250,
                "y": 14
              },
              {
                "x": 300,
                "y": 32
              },
              {
                "x": 325,
                "y": 126
              },
              {
                "x": 321,
                "y": 217
              },
              {
                "x": 258,
                "y": 298
              },
              {
                "x": 175,
                "y": 307
              }
            ]
          ]
        }
      ]
    },
    "ു": {
      "samples": [
        {
          "strokes": [
            [
              {
                "x": 22,
                "y": 0
              },
              {
                "x": 81,
                "y": 49
              },
              {
                "x": 129,
                "y": 147
              },
              {
                "x": 119,
                "y": 210
              },
              {
                "x": 54,
                "y": 298
              },
              {
                "x": 102,
                "y": 266
              },
              {
                "x": 169,
                "y": 280
              },
              {
                "x": 215,
                "y": 346
              },
              {
                "x": 212,
                "y": 394
              },
              {
                "x": 160,
                "y": 414
              },
              {
                "x": 91,
                "y": 413
              },
              {
                "x": 18,
                "y": 388
              },
              {
                "x": 0,
                "y": 362
              },
              {
                "x": 4,
                "y": 340
              },
              {
                "x": 65,
                "y": 290
              }
            ]
          ]
        }
      ]
    },
    "ജ": {
      "samples": [
        {
          "strokes": [
            [
              {
                "x": 55,
                "y": 120
              },
              {
                "x": 89,
                "y": 109
              },
              {
                "x": 121,
                "y": 151
              },
              {
                "x": 108,
                "y": 207
              },
              {
                "x": 79,
                "y": 237
              },
              {
                "x": 42,
                "y": 217
              },
              {
                "x": 8,
                "y": 158
              },
              {
                "x": 0,
                "y": 91
              },
              {
                "x": 26,
                "y": 41
              },
              {
                "x": 98,
                "y": 7
              },
              {
                "x": 172,
                "y": 31
              },
              {
                "x": 205,
                "y": 109
              },
              {
                "x": 197,
                "y": 162
              },
              {
                "x": 226,
                "y": 50
              },
              {
                "x": 378,
                "y": 3
              },
              {
                "x": 413,
                "y": 69
              },
              {
                "x": 420,
                "y": 143
              },
              {
                "x": 383,
                "y": 228
              },
              {
                "x": 176,
                "y": 280
              },
              {
                "x": 95,
                "y": 280
              },
              {
                "x": 59,
                "y": 300
              },
              {
                "x": 54,
                "y": 320
              },
              {
                "x": 84,
                "y": 365
              },
              {
                "x": 184,
                "y": 393
              },
              {
                "x": 273,
                "y": 288
              },
              {
                "x": 327,
                "y": 246
              },
              {
                "x": 393,
                "y": 226
              },
              {
                "x": 430,
                "y": 249
              },
              {
                "x": 453,
                "y": 297
              },
              {
                "x": 457,
                "y": 324
              },
              {
                "x": 438,
                "y": 356
              },
              {
                "x": 366,
                "y": 372
              },
              {
                "x": 334,
                "y": 350
              },
              {
                "x": 318,
                "y": 293
              },
              {
                "x": 342,
                "y": 238
              }
            ]
          ]
        }
      ]
    },
    "ണ": {
      "samples": [
        {
          "strokes": [
            [
              {
                "x": 17,
                "y": 211
              },
              {
                "x": 60,
                "y": 201
              },
              {
                "x": 110,
                "y": 240
              },
              {
                "x": 120,
                "y": 274
              },
              {
                "x": 104,
                "y": 308
              },
              {
                "x": 71,
                "y": 322
              },
              {
                "x": 48,
                "y": 310
              },
              {
                "x": 14,
                "y": 254
              },
              {
                "x": 0,
                "y": 194
              },
              {
                "x": 29,
                "y": 132
              },
              {
                "x": 111,
                "y": 95
              },
              {
                "x": 146,
                "y": 112
              },
              {
                "x": 180,
                "y": 156
              },
              {
                "x": 218,
                "y": 275
              },
              {
                "x": 213,
                "y": 135
              },
              {
                "x": 241,
                "y": 81
              },
              {
                "x": 288,
                "y": 70
              },
              {
                "x": 370,
                "y": 147
              },
              {
                "x": 393,
                "y": 250
              },
              {
                "x": 360,
                "y": 124
              },
              {
                "x": 366,
                "y": 91
              },
              {
                "x": 443,
                "y": 19
              },
              {
                "x": 516,
                "y": 0
              },
              {
                "x": 574,
                "y": 55
              },
              {
                "x": 620,
                "y": 198
              },
              {
                "x": 588,
                "y": 269
              }
            ]
          ]
        }
      ]
    },
    "ട": {
      "samples": [
        {
          "strokes": [
            [
              {
                "x": 236,
                "y": 8
              },
              {
                "x": 179,
                "y": 0
              },
              {
                "x": 79,
                "y": 20
              },
              {
                "x": 21,
                "y": 82
              },
              {
                "x": 70,
                "y": 136
              },
              {
                "x": 176,
                "y": 162
              },
              {
                "x": 313,
                "y": 249
              },
              {
                "x": 326,
                "y": 312
              },
              {
                "x": 290,
                "y": 378
              },
              {
                "x": 249,
                "y": 407
              },
              {
                "x": 151,
                "y": 393
              },
              {
                "x": 30,
                "y": 352
              },
              {
                "x": 0,
                "y": 303
              }
            ]
          ]
        }
      ]
    },
    "s": {
      "samples": [
        {
          "strokes": [
            [
              {
                "x": 236,
                "y": 8
              },
              {
                "x": 179,
                "y": 0
              },
              {
                "x": 79,
                "y": 20
              },
              {
                "x": 21,
                "y": 82
              },
              {
                "x": 70,
                "y": 136
              },
              {
                "x": 176,
                "y": 162
              },
              {
                "x": 313,
                "y": 249
              },
              {
                "x": 326,
                "y": 312
              },
              {
                "x": 290,
                "y": 378
              },
              {
                "x": 249,
                "y": 407
              },
              {
                "x": 151,
                "y": 393
              },
              {
                "x": 30,
                "y": 352
              },
              {
                "x": 0,
                "y": 303
              }
            ]
          ]
        }
      ]
    },
    "S": {
      "samples": [
        {
          "strokes": [
            [
              {
                "x": 236,
                "y": 8
              },
              {
                "x": 179,
                "y": 0
              },
              {
                "x": 79,
                "y": 20
              },
              {
                "x": 21,
                "y": 82
              },
              {
                "x": 70,
                "y": 136
              },
              {
                "x": 176,
                "y": 162
              },
              {
                "x": 313,
                "y": 249
              },
              {
                "x": 326,
                "y": 312
              },
              {
                "x": 290,
                "y": 378
              },
              {
                "x": 249,
                "y": 407
              },
              {
                "x": 151,
                "y": 393
              },
              {
                "x": 30,
                "y": 352
              },
              {
                "x": 0,
                "y": 303
              }
            ]
          ]
        }
      ]
    },
    "്യ": {
      "samples": [
        {
          "strokes": [
            [
              {
                "x": 88,
                "y": 207
              },
              {
                "x": 16,
                "y": 218
              },
              {
                "x": 0,
                "y": 257
              },
              {
                "x": 33,
                "y": 316
              },
              {
                "x": 78,
                "y": 334
              },
              {
                "x": 165,
                "y": 286
              },
              {
                "x": 188,
                "y": 241
              },
              {
                "x": 183,
                "y": 98
              },
              {
                "x": 157,
                "y": 0
              }
            ]
          ]
        }
      ]
    },
    "ഗ": {
      "samples": [
        {
          "strokes": [
            [
              {
                "x": 235,
                "y": 70
              },
              {
                "x": 240,
                "y": 196
              },
              {
                "x": 269,
                "y": 246
              },
              {
                "x": 308,
                "y": 253
              },
              {
                "x": 327,
                "y": 208
              },
              {
                "x": 342,
                "y": 57
              },
              {
                "x": 379,
                "y": 50
              },
              {
                "x": 398,
                "y": 62
              },
              {
                "x": 424,
                "y": 105
              },
              {
                "x": 435,
                "y": 246
              }
            ]
          ]
        }
      ]
    },
    "ദ": {
      "samples": [
        {
          "strokes": [
            [
              {
                "x": 89,
                "y": 321
              },
              {
                "x": 12,
                "y": 203
              },
              {
                "x": 1,
                "y": 93
              },
              {
                "x": 54,
                "y": 27
              },
              {
                "x": 127,
                "y": 0
              },
              {
                "x": 190,
                "y": 10
              },
              {
                "x": 254,
                "y": 46
              },
              {
                "x": 263,
                "y": 111
              },
              {
                "x": 208,
                "y": 176
              },
              {
                "x": 274,
                "y": 183
              },
              {
                "x": 298,
                "y": 207
              },
              {
                "x": 299,
                "y": 251
              },
              {
                "x": 257,
                "y": 315
              },
              {
                "x": 180,
                "y": 310
              }
            ]
          ]
        }
      ]
    },
    "ബ": {
      "samples": [
        {
          "strokes": [
            [
              {
                "x": 51,
                "y": 135
              },
              {
                "x": 89,
                "y": 176
              },
              {
                "x": 84,
                "y": 212
              },
              {
                "x": 68,
                "y": 222
              },
              {
                "x": 14,
                "y": 181
              },
              {
                "x": 1,
                "y": 116
              },
              {
                "x": 67,
                "y": 60
              },
              {
                "x": 123,
                "y": 60
              },
              {
                "x": 177,
                "y": 109
              },
              {
                "x": 224,
                "y": 209
              },
              {
                "x": 207,
                "y": 134
              },
              {
                "x": 221,
                "y": 79
              },
              {
                "x": 263,
                "y": 37
              },
              {
                "x": 320,
                "y": 29
              },
              {
                "x": 366,
                "y": 48
              },
              {
                "x": 422,
                "y": 171
              },
              {
                "x": 382,
                "y": 219
              },
              {
                "x": 494,
                "y": 203
              },
              {
                "x": 454,
                "y": 84
              },
              {
                "x": 461,
                "y": 0
              }
            ]
          ]
        }
      ]
    },
    "ഹ": {
      "samples": [
        {
          "strokes": [
            [
              {
                "x": 56,
                "y": 329
              },
              {
                "x": 19,
                "y": 288
              },
              {
                "x": 0,
                "y": 232
              },
              {
                "x": 14,
                "y": 201
              },
              {
                "x": 45,
                "y": 182
              },
              {
                "x": 96,
                "y": 193
              },
              {
                "x": 137,
                "y": 232
              },
              {
                "x": 157,
                "y": 289
              },
              {
                "x": 135,
                "y": 332
              },
              {
                "x": 346,
                "y": 308
              },
              {
                "x": 599,
                "y": 309
              },
              {
                "x": 508,
                "y": 283
              },
              {
                "x": 438,
                "y": 230
              },
              {
                "x": 407,
                "y": 196
              },
              {
                "x": 374,
                "y": 89
              },
              {
                "x": 394,
                "y": 45
              },
              {
                "x": 424,
                "y": 28
              },
              {
                "x": 539,
                "y": 2
              },
              {
                "x": 672,
                "y": 0
              },
              {
                "x": 740,
                "y": 27
              },
              {
                "x": 769,
                "y": 81
              },
              {
                "x": 784,
                "y": 156
              },
              {
                "x": 777,
                "y": 247
              },
              {
                "x": 727,
                "y": 325
              }
            ]
          ]
        }
      ]
    }
  }
